[
  {
    "#": 12,
    "Дата": "02.07.2016",
    "Имя": "Иванов Александр",
    "Сумма": 600.12
  },
  {
    "#": 7,
    "Дата": "13.09.2017",
    "Имя": "Семенов Николай",
    "Сумма": 7200.60
  },
  {
    "#": 5,
    "Дата": "20.05.2015",
    "Имя": "Антонов Алексей",
    "Сумма": 1248.16
  },
  {
    "#": 18,
    "Дата": "24.12.2016",
    "Имя": "Алексеев Игорь",
    "Сумма": 20.65
  },
  {
    "#": 3,
    "Дата": "17.08.2015",
    "Имя": "Потапов Серей",
    "Сумма": 12720.00
  },
  {
    "#": 1,
    "Дата": "20.01.2015",
    "Имя": "Николаев Иван",
    "Сумма": 121.16
  },
  {
    "#": 21,
    "Дата": "25.02.2017",
    "Имя": "Петров Алексей",
    "Сумма": 200.50
  },
  {
    "#": 16,
    "Дата": "17.09.2016",
    "Имя": "Морозов Сергей",
    "Сумма": 100.15
  },
  {
    "#": 9,
    "Дата": "25.03.2015",
    "Имя": "Иванов Константин",
    "Сумма": 600.25
  },
  {
    "#": 2,
    "Дата": "29.04.2017",
    "Имя": "Потапов Андрей",
    "Сумма": 3200.00
  }
]